<svg xmlns="http://www.w3.org/2000/svg" style="isolation:isolate" viewBox="0 0 128 128" width="128pt" height="128pt">
  <path d=" M 35.71 128 C 33.817 128 31.916 127.279 30.466 125.825 C 27.57 122.929 27.57 118.242 30.466 115.345 L 81.814 64.001 L 30.466 12.652 C 27.57 9.756 27.57 5.065 30.466 2.172 C 33.362 -0.724 38.054 -0.724 40.95 2.172 L 97.534 58.757 C 100.43 61.653 100.43 66.344 97.534 69.237 L 40.95 125.825 C 39.504 127.275 37.607 128 35.71 128 Z " />
</svg>
