<svg xmlns="http://www.w3.org/2000/svg" style="isolation:isolate" viewBox="0 0 128 128" width="128pt" height="128pt">
  <path d=" M 92.29 0 C 94.183 0 96.084 0.721 97.534 2.175 C 100.43 5.071 100.43 9.758 97.534 12.655 L 46.186 63.999 L 97.534 115.348 C 100.43 118.244 100.43 122.935 97.534 125.828 C 94.638 128.724 89.946 128.724 87.05 125.828 L 30.466 69.243 C 27.57 66.347 27.57 61.656 30.466 58.763 L 87.05 2.175 C 88.496 0.725 90.393 0 92.29 0 Z " fill="rgb(0,0,0)"/>
</svg>
