<svg id="Grupo_72" data-name="Grupo 72" xmlns="http://www.w3.org/2000/svg" width="104.357" height="79.987" viewBox="0 0 104.357 79.987">
  <g id="Grupo_70" data-name="Grupo 70" transform="translate(36.123 0)">
    <path id="Trazado_41" data-name="Trazado 41" d="M1383.321,275.732a2.945,2.945,0,1,0-2.944-2.946,2.944,2.944,0,0,0,2.944,2.946m7.587-3.535c0,4.5-2.462,7.366-6.2,7.926V292.8h-.692c-1.412,0-2.085-.768-2.085-2.29V280.127c-3.766-.558-6.2-3.426-6.2-7.93,0-.311.02-.63.049-.935.2-.014.43-.017.793-.017a1.763,1.763,0,0,1,2,1.708c.289,3.1,2.231,4.676,4.751,4.676s4.462-1.58,4.75-4.676a1.764,1.764,0,0,1,2-1.708c.363,0,.589,0,.793.017.028.3.047.624.047.935" transform="translate(-1365.559 -269.842)" fill="#ffa851"/>
    <path id="Trazado_42" data-name="Trazado 42" d="M1411.823,302.18a2.945,2.945,0,1,0-2.945-2.945,2.944,2.944,0,0,0,2.945,2.945m7.59-3.534c0,4.5-2.465,7.367-6.2,7.927v5.579h-.691c-1.413,0-2.086-.766-2.086-2.29v-3.287c-3.766-.557-6.2-3.426-6.2-7.93,0-.309.018-.629.047-.934.206-.013.432-.017.8-.017a1.764,1.764,0,0,1,2,1.708c.289,3.1,2.231,4.674,4.75,4.674s4.462-1.578,4.75-4.674a1.764,1.764,0,0,1,2-1.708c.363,0,.592,0,.793.017.03.3.05.624.05.934" transform="translate(-1383.898 -286.861)" fill="#5fd9c2"/>
    <path id="Trazado_43" data-name="Trazado 43" d="M1354.789,302.18a2.945,2.945,0,1,0-2.944-2.944,2.944,2.944,0,0,0,2.944,2.944m6.746-4.486c.364,0,.59,0,.795.019.03.3.047.623.047.932,0,4.5-2.464,7.368-6.2,7.927v5.58h-.693c-1.413,0-2.084-.766-2.084-2.29v-3.287c-3.765-.557-6.2-3.426-6.2-7.93,0-.309.019-.628.048-.932.2-.014.43-.019.794-.019a1.765,1.765,0,0,1,2,1.708c.286,3.1,2.227,4.676,4.748,4.676s4.46-1.579,4.75-4.676a1.764,1.764,0,0,1,2-1.708" transform="translate(-1347.2 -286.861)" fill="#4c81ff"/>
  </g>
  <g id="Grupo_71" data-name="Grupo 71" transform="translate(0 30.302)">
    <path id="Trazado_44" data-name="Trazado 44" d="M1281.522,432.229c5.682,0,9.458-4.677,9.458-10.213,0-5.677-3.478-10.145-9.517-10.145-5.574,0-9.164,4.375-9.164,10.087,0,5.8,3.476,10.271,9.224,10.271m.159-25.735c9.185,0,14.982,6.415,14.982,15.918v15.246h-1.62c-2.56,0-3.871-1.354-4.028-4.037a13.469,13.469,0,0,1-9.493,4.122c-8.2,0-15.026-6.449-15.026-15.727,0-9.11,6.778-15.522,15.185-15.522m39.319.342c-.6-.058-1.217-.094-1.822-.094-4.616,0-8.442,1.284-11.192,3.694-.256-2.46-1.612-3.7-4.158-3.7h-1.394v30.926h1.394c2.845,0,4.207-1.546,4.207-4.608V421.843c0-6.211,3.82-9.356,9.676-9.581,1.941-.073,3.321-1.311,3.321-3.884,0-.707-.008-1.148-.031-1.543m14.911,5.035a8.91,8.91,0,0,0-9.055,6.973h17.535c-.494-4.455-3.83-6.973-8.48-6.973m6.556,18.429c1.157-.9,1.813-1.558,3.719-1.558a4.68,4.68,0,0,1,3.237,1.481c-1.889,3.406-7.261,7.52-13.728,7.52-8.2,0-15.029-6.449-15.029-15.727,0-9.11,6.784-15.522,15.19-15.522,8.161,0,14.388,5.923,14.388,13.912,0,1.775-.822,3.309-3.064,3.309h-20.591c.646,4.93,4.053,8.635,9.457,8.56a9.808,9.808,0,0,0,6.42-1.975m-96.58-8.044c0-9.989,7.305-15.515,17.106-15.515.6,0,1.226.036,1.815.094.03.395.035.836.035,1.543,0,2.572-1.379,3.81-3.322,3.884-5.857.225-9.858,4.012-9.858,9.953,0,5.366,3.833,9.46,9.858,10.023,1.934.178,3.322,1.309,3.322,3.886,0,.706-.005,1.147-.035,1.542-.589.058-1.213.091-1.815.091-9.8,0-17.106-5.49-17.106-15.5" transform="translate(-1245.886 -388.073)" fill="#1ac9a8"/>
    <path id="Trazado_45" data-name="Trazado 45" d="M1360.32,367.722c0-.811-.468-1.092-1.247-1.092h-5.858c-2.749,0-3.718-1.7-3.845-2.877h8.13a2.818,2.818,0,1,0,0-5.613h-4.388c-4,0-5.317,2.722-5.317,4.928,0,2.425,1.5,4.933,5.3,4.933h7.221Zm-7.094-8.212h4.077c1.409,0,1.746.876,1.746,1.437,0,.5-.312,1.435-1.746,1.435h-7.932c.1-.974.915-2.872,3.855-2.872m-16.579,7.869c-.424.571-.708.771-1.076.771-.51,0-.706-.277-1.068-.771l-6.767-9.239h.911a1.692,1.692,0,0,1,1.67.915c.181.249,5.3,7.455,5.3,7.455s5.1-7.2,5.317-7.495a1.657,1.657,0,0,1,1.652-.875h.8s-6.02,8.257-6.735,9.239m-38.568.621a1.044,1.044,0,0,1-1.125-.962l-.2-1.071a4.656,4.656,0,0,1-4.242,2.033h-3.076c-4.181,0-5.365-2.837-5.365-4.933,0-2.36,1.423-4.928,5.365-4.928h3.076c2.993,0,4.656,1.741,5.056,3.865.335,1.775,1.118,6,1.118,6Zm-5.9-8.491h-2.629c-2.95,0-3.956,1.875-3.956,3.558,0,1.7,1,3.563,3.956,3.563h2.629c3.08,0,3.977-1.957,3.977-3.563,0-1.427-.8-3.558-3.977-3.558m53.176-2.5a.733.733,0,0,0,.776-.787V355.9a.777.777,0,1,0-1.553,0v.326a.73.73,0,0,0,.777.787m-.759,1.131h.358c.706,0,1.158.314,1.158,1.273V368h-.38c-.765,0-1.135-.417-1.135-1.245ZM1301,359.418a5.14,5.14,0,0,1,3.641-1.278h3.076c4.181,0,5.363,2.834,5.363,4.928,0,2.362-1.417,4.933-5.363,4.933h-3.076a4.8,4.8,0,0,1-5.154-4.93v-8.243h.469a.915.915,0,0,1,1.045.974Zm3.982,7.212h2.624c2.954,0,3.958-1.879,3.958-3.563,0-1.7-1-3.558-3.958-3.558h-2.624c-3.085,0-3.982,1.955-3.982,3.558,0,1.433.8,3.563,3.982,3.563m11.148-7.212a5.14,5.14,0,0,1,3.643-1.278h3.074c4.185,0,5.364,2.834,5.364,4.928,0,2.362-1.416,4.933-5.364,4.933h-3.074a4.8,4.8,0,0,1-5.154-4.93v-8.243h.462c.675,0,1.049.344,1.049.974Zm3.98,7.212h2.628c2.953,0,3.955-1.879,3.955-3.563,0-1.7-1-3.558-3.955-3.558h-2.628c-3.084,0-3.979,1.955-3.979,3.558,0,1.433.8,3.563,3.979,3.563m40.207,1.092c0-.811-.468-1.092-1.247-1.092h-5.858c-2.749,0-3.718-1.7-3.845-2.877h8.13a2.818,2.818,0,1,0,0-5.613h-4.388c-4,0-5.317,2.722-5.317,4.928,0,2.425,1.5,4.933,5.3,4.933h7.221Zm-7.094-8.212h4.077c1.409,0,1.746.876,1.746,1.437,0,.5-.312,1.435-1.746,1.435h-7.932c.1-.974.915-2.872,3.855-2.872m-16.579,7.869c-.424.571-.708.771-1.076.771-.51,0-.706-.277-1.068-.771l-6.767-9.239h.911a1.692,1.692,0,0,1,1.67.915c.181.249,5.3,7.455,5.3,7.455s5.1-7.2,5.317-7.495a1.657,1.657,0,0,1,1.652-.875h.8s-6.02,8.257-6.735,9.239m-38.568.621a1.044,1.044,0,0,1-1.125-.962l-.2-1.071a4.656,4.656,0,0,1-4.242,2.033h-3.076c-4.181,0-5.365-2.837-5.365-4.933,0-2.36,1.423-4.928,5.365-4.928h3.076c2.993,0,4.656,1.741,5.056,3.865.335,1.775,1.118,6,1.118,6Zm-5.9-8.491h-2.629c-2.95,0-3.956,1.875-3.956,3.558,0,1.7,1,3.563,3.956,3.563h2.629c3.08,0,3.977-1.957,3.977-3.563,0-1.427-.8-3.558-3.977-3.558m53.176-2.5a.733.733,0,0,0,.776-.787V355.9a.777.777,0,1,0-1.553,0v.326a.73.73,0,0,0,.777.787m-.759,1.131h.358c.706,0,1.158.314,1.158,1.273V368h-.38c-.765,0-1.135-.417-1.135-1.245ZM1301,359.418a5.14,5.14,0,0,1,3.641-1.278h3.076c4.181,0,5.363,2.834,5.363,4.928,0,2.362-1.417,4.933-5.363,4.933h-3.076a4.8,4.8,0,0,1-5.154-4.93v-8.243h.469a.915.915,0,0,1,1.045.974Zm3.982,7.212h2.624c2.954,0,3.958-1.879,3.958-3.563,0-1.7-1-3.558-3.958-3.558h-2.624c-3.085,0-3.982,1.955-3.982,3.558,0,1.433.8,3.563,3.982,3.563m11.148-7.212a5.14,5.14,0,0,1,3.643-1.278h3.074c4.185,0,5.364,2.834,5.364,4.928,0,2.362-1.416,4.933-5.364,4.933h-3.074a4.8,4.8,0,0,1-5.154-4.93v-8.243h.462c.675,0,1.049.344,1.049.974Zm3.98,7.212h2.628c2.953,0,3.955-1.879,3.955-3.563,0-1.7-1-3.558-3.955-3.558h-2.628c-3.084,0-3.979,1.955-3.979,3.558,0,1.433.8,3.563,3.979,3.563" transform="translate(-1270.457 -354.828)" fill="#071d49"/>
  </g>
</svg>
